<?xml version="1.0" encoding="UTF-8"?>
<svg width="244px" height="149px" viewBox="0 0 244 149" version="1.1" xmlns="http://www.w3.org/2000/svg" xmlns:xlink="http://www.w3.org/1999/xlink">
    <!-- Generator: Sketch 50 (54983) - http://www.bohemiancoding.com/sketch -->
    <title>Group 18</title>
    <desc>Created with Sketch.</desc>
    <defs></defs>
    <g id="Page-1" stroke="none" stroke-width="1" fill="none" fill-rule="evenodd">
        <g id="главная" transform="translate(-855.000000, -1491.000000)">
            <g id="о-компании" transform="translate(0.000000, 1108.000000)">
                <g id="Group-4-Copy" transform="translate(855.000000, 383.000000)">
                    <g id="Group-18">
                        <path d="M24.3607863,2.4670243 L14.1561236,146.70788 L235.623294,133.113297 L239.759746,51.4220252 L24.3607863,2.4670243 Z" id="Rectangle-12" stroke="#2F46AB" stroke-width="4"></path>
                        <polygon id="Rectangle-12-Copy" fill="#31D1AE" opacity="0.889999986" points="0.316553053 33.0409322 243.809026 15.5466244 210.021144 146.985043 8.39114061 132.27413"></polygon>
                    </g>
                </g>
            </g>
        </g>
    </g>
</svg>