<?xml version="1.0" encoding="UTF-8"?>
<svg width="18px" height="18px" viewBox="0 0 18 18" version="1.1" xmlns="http://www.w3.org/2000/svg" xmlns:xlink="http://www.w3.org/1999/xlink">
    <!-- Generator: Sketch 50.2 (55047) - http://www.bohemiancoding.com/sketch -->
    <title>MTS_logo</title>
    <desc>Created with Sketch.</desc>
    <defs></defs>
    <g id="Page-1" stroke="none" stroke-width="1" fill="none" fill-rule="evenodd">
        <g id="главная" transform="translate(-908.000000, -34.000000)">
            <g id="MTS_logo" transform="translate(908.000000, 34.000000)">
                <rect id="Rectangle-4" fill="#FF0000" x="0" y="0" width="18" height="18" rx="2"></rect>
                <path d="M9.24891627,2 C11.7873627,2 14.5,6.47791982 14.5,10.3557016 C14.5,13.4016238 12.6853738,16 9.24891627,16 C5.8098939,16 4,13.4016238 4,10.3557016 C4,6.47791981 6.71010858,2 9.24891627,2" id="Shape" fill="#FFFFFF" fill-rule="nonzero"></path>
            </g>
        </g>
    </g>
</svg>