<?xml version="1.0" encoding="UTF-8"?>
<svg width="14px" height="14px" viewBox="0 0 14 14" version="1.1" xmlns="http://www.w3.org/2000/svg" xmlns:xlink="http://www.w3.org/1999/xlink">
    <!-- Generator: Sketch 50 (54983) - http://www.bohemiancoding.com/sketch -->
    <title>Shape</title>
    <desc>Created with Sketch.</desc>
    <defs></defs>
    <g id="Page-1" stroke="none" stroke-width="1" fill="none" fill-rule="evenodd">
        <g id="главная" transform="translate(-169.000000, -286.000000)" fill="#0EA500" fill-rule="nonzero">
            <g id="Group-3" transform="translate(169.000000, 279.000000)">
                <g id="check-mark" transform="translate(0.000000, 7.000000)">
                    <path d="M5.21128162,14 C4.75474194,14 4.32295947,13.7963986 4.04538502,13.4471961 L0.296556429,8.72776319 C-0.191034664,8.1139589 -0.0641015269,7.2399528 0.579795661,6.77494955 C1.22474188,6.30974631 2.14096835,6.43154716 2.62876925,7.04495144 L5.09441921,10.1485731 L11.2956799,0.656906836 C11.7226369,0.00390227628 12.6241768,-0.195899119 13.3106648,0.210503719 C13.9963136,0.617306559 14.2057008,1.47731256 13.7785341,2.13091713 L6.45291849,13.3429954 C6.1984228,13.7327981 5.75908728,13.9779998 5.2780002,13.9988 C5.25555087,13.9996 5.23352115,14 5.21128162,14 Z" id="Shape"></path>
                </g>
            </g>
        </g>
    </g>
</svg>